Activity #2 – Help from AI
…
library(tidyverse)

country_inflation <- read_csv("data/country-inflation.csv")

There are 3 columns and 1178 rows in this new data frame.

df <- country_inflation |> 
    pivot_longer(
    cols = -country,names_to = "year", 
    values_to = "inflationrate"
               )
print(df)

# A tibble: 1,178 × 3
   country   year  inflationrate
   <chr>     <chr>         <dbl>
 1 Australia 1993          1.75 
 2 Australia 1994          1.97 
 3 Australia 1995          4.63 
 4 Australia 1996          2.62 
 5 Australia 1997          0.225
 6 Australia 1998          0.860
 7 Australia 1999          1.48 
 8 Australia 2000          4.46 
 9 Australia 2001          4.41 
10 Australia 2002          2.98 
# ℹ 1,168 more rows
…
country_inflation <- read_csv("data/country-inflation.csv")

The data frame, “yearly_inflation,” has 1,178 rows and three columns.

yearly_inflation <- country_inflation |>
  pivot_longer(
    cols = `1993`:`2023`,
    names_to = "year",
    names_transform = as.numeric,
    values_to = "annual_inflation"
  )

yearly_inflation

# A tibble: 1,178 × 3
   country    year annual_inflation
   <chr>     <dbl>            <dbl>
 1 Australia  1993            1.75 
 2 Australia  1994            1.97 
 3 Australia  1995            4.63 
 4 Australia  1996            2.62 
 5 Australia  1997            0.225
 6 Australia  1998            0.860
 7 Australia  1999            1.48 
 8 Australia  2000            4.46 
 9 Australia  2001            4.41 
10 Australia  2002            2.98 
# ℹ 1,168 more rows
…
